%
M48
M72
T01C0.0118
T02C0.0276
T03C0.0315
T04C0.0374
T05C0.0400
T06C0.0470
T07C0.0906
T08C0.1575
%
T01
X4392Y2629
X6267Y2629
X8642Y2754
X7267Y4504
X6767Y5379
X6142Y5629
X4142Y4879
X3642Y5129
X4142Y4254
X9642Y5879
X10892Y5004
X12267Y5004
X12892Y6254
X14517Y5629
X15767Y6379
X16392Y7129
X15517Y7629
X14242Y7129
X12892Y7504
X12892Y8254
X11392Y8254
X9517Y9504
X8142Y8879
X7517Y8879
X4767Y8879
X4142Y8879
X4267Y8129
X4642Y8129
X1392Y8879
X6267Y11504
X7267Y11504
X4642Y13004
X4267Y13004
X4142Y13754
X4767Y13754
X7517Y13754
X8142Y13754
X11017Y14379
X11517Y15129
X12517Y15004
X13517Y15129
X14767Y16379
X16517Y16254
X16892Y16254
X17767Y16379
X18142Y16379
X18517Y16379
X17392Y17004
X17642Y17504
X19142Y17629
X20642Y19004
X21642Y19004
X23017Y19004
X23892Y19004
X27767Y19004
X28767Y19004
X32392Y17629
X33642Y16129
X33642Y15379
X34142Y15129
X34892Y15504
X36267Y16254
X36892Y16254
X37892Y16129
X37392Y15629
X36392Y15504
X36892Y14629
X37142Y13754
X35517Y13754
X34392Y14129
X34017Y12879
X32517Y12879
X31017Y12879
X30517Y13254
X30142Y13629
X31017Y13629
X30017Y14504
X29017Y14879
X27892Y15004
X27892Y15754
X29017Y15754
X26767Y14504
X27392Y14254
X28142Y14254
X26267Y12879
X25392Y13254
X24642Y13754
X23517Y14004
X23517Y14754
X24767Y14754
X25267Y14754
X25267Y15254
X24767Y15254
X25892Y15879
X26267Y16004
X23267Y16129
X22142Y15629
X21142Y15254
X19892Y14629
X18892Y14504
X19017Y14129
X19642Y13879
X20142Y13504
X19892Y13129
X18892Y13379
X18392Y14004
X18142Y14504
X18517Y14629
X18267Y15004
X17892Y14879
X17517Y14879
X17142Y14879
X16767Y15004
X16142Y14754
X16767Y13629
X16392Y13379
X15892Y12879
X16892Y12754
X17267Y12754
X17767Y12254
X17392Y12129
X17517Y11629
X18142Y11254
X18517Y11879
X18267Y12254
X19892Y12379
X20517Y12379
X20267Y11629
X20767Y11129
X20767Y10754
X20767Y10379
X20767Y10004
X21142Y9254
X20392Y8629
X19017Y8754
X18767Y8379
X19017Y7004
X19017Y6629
X18267Y6629
X17892Y6629
X18017Y5879
X19017Y5879
X19767Y5754
X21517Y6004
X22642Y5379
X18267Y3129
X17017Y3129
X17017Y4629
X14517Y4379
X14517Y3879
X14517Y3504
X13267Y3504
X13267Y3879
X12267Y2504
X11392Y6254
X15517Y8879
X17517Y9879
X16267Y10254
X15892Y10504
X16142Y10879
X15892Y11254
X16267Y11754
X15892Y12129
X14642Y12004
X17517Y10754
X18767Y10254
X19017Y9879
X18892Y10754
X22307Y9419
X23142Y8879
X23142Y8504
X22517Y8629
X22142Y7754
X23142Y7754
X26142Y8504
X27142Y8004
X27767Y8504
X28392Y8629
X30017Y8129
X30392Y8254
X31267Y8629
X31267Y7629
X28642Y6129
X27892Y6879
X27142Y6129
X27892Y5254
X28017Y4254
X28642Y3254
X27267Y3254
X28017Y2254
X35267Y7629
X36142Y8129
X36642Y8504
X37517Y8254
X37517Y10129
X34517Y10379
X34017Y11004
X31017Y11004
X30017Y10254
X27392Y11254
X27392Y11629
X25767Y11629
X25017Y10754
X26892Y9879
X23517Y11879
X22267Y12379
X23642Y12879
X24642Y12504
X30142Y12879
X31892Y15754
X35642Y17879
X37142Y17379
X38767Y18379
X37892Y18879
X35642Y18879
X39017Y16129
X34392Y22254
X33642Y22254
X32017Y22254
X28642Y22254
X27767Y22254
X26267Y22254
X25392Y22254
X21517Y22254
X20642Y22254
X19142Y22254
X18267Y22254
X14392Y22254
X13392Y22254
X9642Y22254
X8767Y22254
X7267Y22254
X6392Y22254
X6392Y19004
X7267Y19004
X8767Y19004
X9642Y19004
X10392Y17254
X13517Y19004
X14392Y19004
X15892Y19004
X16392Y19004
X18017Y13379
X14142Y10129
X12892Y10129
X11392Y10129
X10642Y11254
X11017Y12254
X11892Y12379
X4892Y15879
X1392Y13754
T02
X35517Y10754
X38517Y10754
X38517Y13754
X36517Y13754
T03
X24267Y5004
X24267Y3004
T04
X32775Y6571
X33759Y6571
X33759Y7358
X32775Y7358
T05
X33142Y18379
X34142Y18379
X32142Y18379
X2517Y18379
X1517Y18379
X1517Y17379
X2517Y17379
X2517Y16379
X1517Y16379
T06
X26017Y3254
X28017Y3254
T07
X30897Y5504
X35637Y5504
T08
X38541Y3329
X38541Y21636
X1612Y21636
X1612Y3329
M30
